0x98800: 00010000
0x98804: 00010010
0x98808: 00010ff0
0x9880c: 00010fff
0x98810: 00000000
0x98814: 00000000
0x98818: 00000000
0x9881c: 00000000
0x98820: 00000000
0x98824: 00000000
0x98828: 00000000
0x9882c: 00000000
0x98830: 00000000
0x98834: 00000000
0x98838: 00000000
0x9883c: 00000000
0x98880: 00000000
0x98884: 007f00fe
0x98888: 7ed90000
0x9888c: 00000000
0x98890: 00000000
0x98894: 00000000
0x98898: 00000000
0x9889c: 00000000
0x988a0: 00000000
0x988a4: 00000000
0x988a8: 00000000
0x988ac: 00000000
0x988b0: 00000000
0x988b4: 00000000
0x988b8: 00000000
0x988bc: 00000000
0x98900: 00010000
0x98904: 00010010
0x98908: 00010ff0
0x9890c: 00010fff
0x98910: 00000000
0x98914: 00000000
0x98918: 00000000
0x9891c: 00000000
0x98920: 00000000
0x98924: 00000000
0x98928: 00000000
0x9892c: 00000000
0x98930: 00000000
0x98934: 00000000
0x98938: 00000000
0x9893c: 00000000
0x98980: 00000000
0x98984: 007a00f5
0x98988: 7a310000
0x9898c: 00000000
0x98990: 00000000
0x98994: 00000000
0x98998: 00000000
0x9899c: 00000000
0x989a0: 00000000
0x989a4: 00000000
0x989a8: 00000000
0x989ac: 00000000
0x989b0: 00000000
0x989b4: 00000000
0x989b8: 00000000
0x989bc: 00000000
0x98a00: 00010000
0x98a04: 00010010
0x98a08: 00010ff0
0x98a0c: 00010fff
0x98a10: 00000000
0x98a14: 00000000
0x98a18: 00000000
0x98a1c: 00000000
0x98a20: 00000000
0x98a24: 00000000
0x98a28: 00000000
0x98a2c: 00000000
0x98a30: 00000000
0x98a34: 00000000
0x98a38: 00000000
0x98a3c: 00000000
0x98a80: 00000000
0x98a84: 00800100
0x98a88: 7f800000
0x98a8c: 00000000
0x98a90: 00000000
0x98a94: 00000000
0x98a98: 00000000
0x98a9c: 00000000
0x98aa0: 00000000
0x98aa4: 00000000
0x98aa8: 00000000
0x98aac: 00000000
0x98ab0: 00000000
0x98ab4: 00000000
0x98ab8: 00000000
0x98abc: 00000000
